%YAML 1.1
%TAG !u! tag:unity3d.com,2011:
--- !u!1 &5938776245462716842
GameObject:
  m_ObjectHideFlags: 0
  m_CorrespondingSourceObject: {fileID: 0}
  m_PrefabInstance: {fileID: 0}
  m_PrefabAsset: {fileID: 0}
  serializedVersion: 6
  m_Component:
  - component: {fileID: 5938776245462716840}
  - component: {fileID: 5938776245462716843}
  - component: {fileID: 5938776245462716841}
  m_Layer: 0
  m_Name: InGameManager
  m_TagString: Untagged
  m_Icon: {fileID: 0}
  m_NavMeshLayer: 0
  m_StaticEditorFlags: 0
  m_IsActive: 1
--- !u!4 &5938776245462716840
Transform:
  m_ObjectHideFlags: 0
  m_CorrespondingSourceObject: {fileID: 0}
  m_PrefabInstance: {fileID: 0}
  m_PrefabAsset: {fileID: 0}
  m_GameObject: {fileID: 5938776245462716842}
  m_LocalRotation: {x: 0, y: 0, z: 0, w: 1}
  m_LocalPosition: {x: 0, y: 0, z: 0}
  m_LocalScale: {x: 1, y: 1, z: 1}
  m_Children: []
  m_Father: {fileID: 0}
  m_RootOrder: 0
  m_LocalEulerAnglesHint: {x: 0, y: 0, z: 0}
--- !u!114 &5938776245462716843
MonoBehaviour:
  m_ObjectHideFlags: 0
  m_CorrespondingSourceObject: {fileID: 0}
  m_PrefabInstance: {fileID: 0}
  m_PrefabAsset: {fileID: 0}
  m_GameObject: {fileID: 5938776245462716842}
  m_Enabled: 1
  m_EditorHideFlags: 0
  m_Script: {fileID: 11500000, guid: 4cf84d70096afaf4890793f63b3d1963, type: 3}
  m_Name: 
  m_EditorClassIdentifier: 
  bugs: 0
  codeDone: 0
  artDone: 0
  energy: 0
  timeClock: 0
  energyText: {fileID: 9121005231717851687, guid: fda5c07830808ca488f24bca4f0ed7d2, type: 3}
  bugsText: {fileID: 4600788445836344572, guid: 0c098844c857587418709896db572e57, type: 3}
  timeClockText: {fileID: 6550039480637557539, guid: f15da3682817eda4bbf6fa5251697e15, type: 3}
  codeDoneText: {fileID: 8747237738781551017, guid: ef07577c8f79af2428052ca7cfe23ad6, type: 3}
  player: {fileID: 8093889640472520204, guid: 457ba7092c22c1147b814ba880ba0afd, type: 3}
  cmg: {fileID: 1937064795075560907, guid: 1129f264f2111b74086b27ee77037c5c, type: 3}
--- !u!114 &5938776245462716841
MonoBehaviour:
  m_ObjectHideFlags: 0
  m_CorrespondingSourceObject: {fileID: 0}
  m_PrefabInstance: {fileID: 0}
  m_PrefabAsset: {fileID: 0}
  m_GameObject: {fileID: 5938776245462716842}
  m_Enabled: 1
  m_EditorHideFlags: 0
  m_Script: {fileID: 11500000, guid: ee2839ab402c84b4880d472bcba2d9f2, type: 3}
  m_Name: 
  m_EditorClassIdentifier: 
  clockText: {fileID: 6550039480637557539, guid: f15da3682817eda4bbf6fa5251697e15, type: 3}
  countDown: 5
  igm: {fileID: 5938776245462716843}
